test started 
20:08:09,34 
 
---------------------- 
vbgeneric start 
20:08:09,36 
description="Oracle DB Developer VM 2016-06

Pinging vbgeneric.ipr.local [10.10.20.139] with 32 bytes of data:
Reply from 10.10.20.139: bytes=32 time=1ms TTL=64

Ping statistics for 10.10.20.139:
    Packets: Sent = 1, Received = 1, Lost = 0 (0% loss),
Approximate round trip times in milli-seconds:
    Minimum = 1ms, Maximum = 1ms, Average = 1ms
---------------------- 
 
test finished
20:15:33,32 
